<svg xmlns="http://www.w3.org/2000/svg" xmlns:xlink="http://www.w3.org/1999/xlink" width="13px" height="26px">
    <defs>
        <filter id="Filter_0">
            <feFlood flood-color="rgb(255, 255, 255)" flood-opacity="1" result="floodOut" />
            <feComposite operator="atop" in="floodOut" in2="SourceGraphic" result="compOut" />
            <feBlend mode="normal" in="compOut" in2="SourceGraphic" />
        </filter>
    </defs>
    <g filter="url(#Filter_0)">
        <path fill-rule="evenodd"  fill="rgb(236, 240, 241)" d="M13.007,25.505 L12.515,26.006 L-0.007,13.250 L0.239,12.999 L-0.007,12.748 L12.515,-0.008 L13.007,0.493 L0.731,12.999 L13.007,25.505 Z"/>
    </g>
</svg>